<svg width="85" height="100" viewBox="0 0 85 100" fill="none" xmlns="http://www.w3.org/2000/svg">
<path d="M37.3258 50.2861L37.7883 40.8002C39.2205 38.9715 42.5007 36.144 43.5987 34.9523L49.5958 40.8501L49.1185 50.9455L65.9814 50.472L66.2647 40.258L76.8206 40.4808L77 43.7679L76.8867 59.2003L76.915 72.8777L65.3866 72.2649L65.6604 62.5338L53.6693 62.3573L48.2969 61.9488L47.9947 76.4805L48.0419 78.9318L49.6848 79.0526L64.0364 79.5354L63.8192 89.898L60.5712 90.0001L48.7312 89.9165L48.278 89.9908L42.7828 89.8794L24.6357 89.8423L25.2683 77.6783L33.9075 77.8547L37.3821 78.1147L37.1838 71.5964L37.2688 61.1502L22.0392 60.8438L20.0753 60.881L19.7354 72.9335L9.17939 72.7106L9 69.4421L9.1133 53.9911L9.08498 40.3137L20.6134 40.9265L20.3491 50.4163L27.015 50.212L37.3258 50.2861Z" fill="#FFFFFF"/>
<path d="M21.9199 35.1614L29.6242 41.1851L37.5927 31.4514L43.4158 24.7114L57.9947 39.9278L65.2837 34.1979L48.215 14.9904L43.6018 10L24.7998 31.7348L21.9199 35.1614Z" fill="#FFFFFF"/>
</svg>
